{
    
    "jwtSecret": "uselftokenauth",
    "similarityURL": "https://twinword-text-similarity-v1.p.rapidapi.com/similarity/",
    "similarityX-RapidAPI-Host": "twinword-text-similarity-v1.p.rapidapi.com",
    "similarityX-RapidAPI-Key": "4ba33f9233msh19ea5d4dd8b485bp1a799ajsnbab8a5ffff39",
    
    "jwtSecretApostille": "apostilletokenauth",
    "userBadgrID" : "tG6xY8JuSX2kqYld8QdPqw",
    "emailBadgr": "support@u-self.com",
    "passwordBadgr" : "qwER_1234",

    "nemWalletPassword": "qwER_1234",
    "nemPrivateKey": "2a82059f3876bf9235331b159cf38dabe6f0f7fbb971f22cb874781502a73d87",
    
    "BUCKET_NAME": "apostille-badge",
    "IAM_USER_KEY": "AKIAJ46MI3KEVQCE22KA",
    "IAM_USER_SECRET": "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",

    "DIGIBADGEUSER" : "support@u-self.com",
    "DIGIBADGEPASSWORD" : "qwER_1234"



}